<?xml version="1.0" encoding="UTF-8" standalone="no"?>
<svg
   xmlns:dc="http://purl.org/dc/elements/1.1/"
   xmlns:cc="http://creativecommons.org/ns#"
   xmlns:rdf="http://www.w3.org/1999/02/22-rdf-syntax-ns#"
   xmlns:svg="http://www.w3.org/2000/svg"
   xmlns="http://www.w3.org/2000/svg"
   xmlns:sodipodi="http://sodipodi.sourceforge.net/DTD/sodipodi-0.dtd"
   xmlns:inkscape="http://www.inkscape.org/namespaces/inkscape"
   id="svg2"
   sodipodi:docname="simple-red-square.svg"
   viewBox="0 0 230 210"
   version="1.1"
   inkscape:version="0.92.1 r15371"
   width="245.33333"
   height="224">
  <defs
     id="defs7" />
  <sodipodi:namedview
     id="namedview5"
     bordercolor="#666666"
     inkscape:pageshadow="2"
     guidetolerance="10"
     pagecolor="#ffffff"
     gridtolerance="10"
     inkscape:showpageshadow="false"
     inkscape:window-maximized="0"
     inkscape:zoom="0.45254834"
     objecttolerance="10"
     borderopacity="1"
     inkscape:current-layer="svg2"
     inkscape:cx="54.322289"
     inkscape:cy="71.576595"
     inkscape:window-y="0"
     inkscape:window-x="0"
     inkscape:window-width="716"
     showgrid="false"
     inkscape:pageopacity="0"
     inkscape:window-height="483"
     showborder="false"
     inkscape:pagecheckerboard="true" />
  <rect
     id="rectangle"
     style="fill:none;stroke:#ff0000;stroke-width:10"
     height="200"
     width="220"
     y="5"
     x="5" />
  <metadata
     id="metadata4">
    <rdf:RDF>
      <cc:Work>
        <dc:format>image/svg+xml</dc:format>
        <dc:type
           rdf:resource="http://purl.org/dc/dcmitype/StillImage" />
        <cc:license
           rdf:resource="http://creativecommons.org/publicdomain/zero/1.0/" />
        <dc:publisher>
          <cc:Agent
             rdf:about="http://openclipart.org/">
            <dc:title>Openclipart</dc:title>
          </cc:Agent>
        </dc:publisher>
        <dc:title>simple red square</dc:title>
        <dc:date>2010-08-29T19:44:02</dc:date>
        <dc:description>a simple red square</dc:description>
        <dc:source>https://openclipart.org/detail/82729/simple-red-square-by-mireille</dc:source>
        <dc:creator>
          <cc:Agent>
            <dc:title>mireille</dc:title>
          </cc:Agent>
        </dc:creator>
        <dc:subject>
          <rdf:Bag>
            <rdf:li>red</rdf:li>
            <rdf:li>square</rdf:li>
          </rdf:Bag>
        </dc:subject>
      </cc:Work>
      <cc:License
         rdf:about="http://creativecommons.org/publicdomain/zero/1.0/">
        <cc:permits
           rdf:resource="http://creativecommons.org/ns#Reproduction" />
        <cc:permits
           rdf:resource="http://creativecommons.org/ns#Distribution" />
        <cc:permits
           rdf:resource="http://creativecommons.org/ns#DerivativeWorks" />
      </cc:License>
    </rdf:RDF>
  </metadata>
</svg>
