<?xml version="1.0" encoding="UTF-8" standalone="no"?>
<!-- Generator: Adobe Illustrator 19.0.0, SVG Export Plug-In . SVG Version: 6.00 Build 0)  -->

<svg
   xmlns:dc="http://purl.org/dc/elements/1.1/"
   xmlns:cc="http://creativecommons.org/ns#"
   xmlns:rdf="http://www.w3.org/1999/02/22-rdf-syntax-ns#"
   xmlns:svg="http://www.w3.org/2000/svg"
   xmlns="http://www.w3.org/2000/svg"
   xmlns:sodipodi="http://sodipodi.sourceforge.net/DTD/sodipodi-0.dtd"
   xmlns:inkscape="http://www.inkscape.org/namespaces/inkscape"
   version="1.1"
   id="Layer_1"
   x="0px"
   y="0px"
   viewBox="0 0 512.043 512.043"
   style="enable-background:new 0 0 512.043 512.043;"
   xml:space="preserve"
   width="512px"
   height="512px"
   sodipodi:docname="ZoomInIconWhite.svg"
   inkscape:version="0.92.1 r15371"><metadata
     id="metadata47"><rdf:RDF><cc:Work
         rdf:about=""><dc:format>image/svg+xml</dc:format><dc:type
           rdf:resource="http://purl.org/dc/dcmitype/StillImage" /><dc:title></dc:title></cc:Work></rdf:RDF></metadata><defs
     id="defs45" /><sodipodi:namedview
     pagecolor="#ffffff"
     bordercolor="#666666"
     borderopacity="1"
     objecttolerance="10"
     gridtolerance="10"
     guidetolerance="10"
     inkscape:pageopacity="0"
     inkscape:pageshadow="2"
     inkscape:window-width="716"
     inkscape:window-height="480"
     id="namedview43"
     showgrid="false"
     inkscape:pagecheckerboard="true"
     inkscape:zoom="0.4609375"
     inkscape:cx="256"
     inkscape:cy="256"
     inkscape:window-x="468"
     inkscape:window-y="204"
     inkscape:window-maximized="0"
     inkscape:current-layer="Layer_1" /><g
     id="g12" /><g
     id="g14" /><g
     id="g16" /><g
     id="g18" /><g
     id="g20" /><g
     id="g22" /><g
     id="g24" /><g
     id="g26" /><g
     id="g28" /><g
     id="g30" /><g
     id="g32" /><g
     id="g34" /><g
     id="g36" /><g
     id="g38" /><g
     id="g40" /><path
     inkscape:connector-curvature="0"
     d="m 197.58512,2.1491122 c 106.6548,0 193.10778,86.4526918 193.10778,193.1077978 0,48.12818 -17.52825,92.09749 -46.64317,125.66837 L 511.90502,488.78057 490.8117,509.87358 322.95643,342.01857 C 289.38553,370.83615 245.41653,388.3644 197.58512,388.3644 90.930307,388.3644 4.4773213,301.91171 4.4773213,195.25691 4.4773213,88.601804 90.930307,2.1491122 197.58512,2.1491122 m 0,29.7087538 c -90.31512,0 -163.398746,73.083934 -163.398746,163.399044 0,90.3148 73.083626,163.39874 163.398746,163.39874 90.31511,0 163.39874,-73.08394 163.39874,-163.39874 0,-90.31511 -73.08363,-163.399044 -163.39874,-163.399044 M 123.31293,180.40223 h 59.4178 v -59.41751 h 29.70875 v 59.41751 h 59.41781 v 29.70904 h -59.41781 v 59.41781 h -29.70875 v -59.41781 h -59.4178 z"
     id="path2"
     style="stroke-width:29.70887566;fill:#ffffff" /></svg>