<?xml version="1.0" encoding="UTF-8" standalone="no"?>
<!-- Generator: Adobe Illustrator 19.0.0, SVG Export Plug-In . SVG Version: 6.00 Build 0)  -->

<svg
   xmlns:dc="http://purl.org/dc/elements/1.1/"
   xmlns:cc="http://creativecommons.org/ns#"
   xmlns:rdf="http://www.w3.org/1999/02/22-rdf-syntax-ns#"
   xmlns:svg="http://www.w3.org/2000/svg"
   xmlns="http://www.w3.org/2000/svg"
   xmlns:sodipodi="http://sodipodi.sourceforge.net/DTD/sodipodi-0.dtd"
   xmlns:inkscape="http://www.inkscape.org/namespaces/inkscape"
   version="1.1"
   id="Layer_1"
   x="0px"
   y="0px"
   viewBox="0 0 512.043 512.043"
   style="enable-background:new 0 0 512.043 512.043;"
   xml:space="preserve"
   width="512px"
   height="512px"
   sodipodi:docname="ZoomOutIconWhite.svg"
   inkscape:version="0.92.1 r15371"><metadata
     id="metadata47"><rdf:RDF><cc:Work
         rdf:about=""><dc:format>image/svg+xml</dc:format><dc:type
           rdf:resource="http://purl.org/dc/dcmitype/StillImage" /><dc:title></dc:title></cc:Work></rdf:RDF></metadata><defs
     id="defs45" /><sodipodi:namedview
     pagecolor="#ffffff"
     bordercolor="#666666"
     borderopacity="1"
     objecttolerance="10"
     gridtolerance="10"
     guidetolerance="10"
     inkscape:pageopacity="0"
     inkscape:pageshadow="2"
     inkscape:window-width="716"
     inkscape:window-height="480"
     id="namedview43"
     showgrid="false"
     inkscape:pagecheckerboard="true"
     inkscape:zoom="0.4609375"
     inkscape:cx="256"
     inkscape:cy="256"
     inkscape:window-x="468"
     inkscape:window-y="204"
     inkscape:window-maximized="0"
     inkscape:current-layer="Layer_1" /><g
     id="g12" /><g
     id="g14" /><g
     id="g16" /><g
     id="g18" /><g
     id="g20" /><g
     id="g22" /><g
     id="g24" /><g
     id="g26" /><g
     id="g28" /><g
     id="g30" /><g
     id="g32" /><g
     id="g34" /><g
     id="g36" /><g
     id="g38" /><g
     id="g40" /><path
     inkscape:connector-curvature="0"
     d="m 197.58318,2.1514961 c 106.65374,0 193.10587,86.4521209 193.10587,193.1058739 0,48.12771 -17.52808,92.09656 -46.64271,125.66711 L 511.89995,488.7781 490.80686,509.87119 322.95324,342.01757 c -33.57055,28.81729 -77.5394,46.34536 -125.37006,46.34536 C 90.92944,388.36293 4.4773213,301.9111 4.4773213,195.25737 4.4773213,88.603617 90.92944,2.1514961 197.58318,2.1514961 m 0,29.7087529 c -90.3142,0 -163.397104,73.082901 -163.397104,163.397121 0,90.3139 73.082904,163.39711 163.397104,163.39711 90.31421,0 163.39711,-73.08321 163.39711,-163.39711 0,-90.31422 -73.0829,-163.397121 -163.39711,-163.397121 M 123.31174,180.40313 H 271.85463 V 210.1116 H 123.31174 Z"
     id="path2"
     style="fill:#ffffff;stroke-width:29.7085762" /></svg>